415 - ICE6
…
compute local Gi

HCSA <- wm_idw %>% 
  mutate(local_Gi = local_gstar_perm(
    GDPPC, nb, wt, nsim = 99),
         .before = 1) %>%
  unnest(local_Gi)
HCSA

Simple feature collection with 88 features and 18 fields
Geometry type: POLYGON
Dimension:     XY
Bounding box:  xmin: 108.7831 ymin: 24.6342 xmax: 114.2544 ymax: 30.12812
Geodetic CRS:  WGS 84
# A tibble: 88 × 19
   gi_star cluster   e_gi    var_gi  std_dev p_value p_sim p_folded_sim skewness
     <dbl> <fct>    <dbl>     <dbl>    <dbl>   <dbl> <dbl>        <dbl>    <dbl>
 1  0.0416 Low     0.0115   6.69e-6  0.00106 9.99e-1  0.84         0.42    1.21 
 2 -0.333  Low     0.0107   6.09e-6 -0.101   9.19e-1  0.92         0.46    0.792
 3  0.281  High    0.0123   8.52e-6 -0.0220  9.82e-1  0.78         0.39    0.805
 4  0.411  High    0.0119   1.06e-5  0.216   8.29e-1  0.7          0.35    0.803
 5  0.387  High    0.0116   8.61e-6  0.305   7.61e-1  0.62         0.31    1.07 
 6 -0.368  High    0.0115   8.81e-6 -0.391   6.96e-1  0.8          0.4     1.17 
 7  3.56   High    0.0149   6.87e-6  2.78    5.40e-3  0.04         0.02    0.991
 8  2.52   High    0.0132   4.78e-6  1.86    6.28e-2  0.1          0.05    0.734
 9  4.56   High    0.0144   5.87e-6  3.52    4.34e-4  0.02         0.01    0.602
10  1.16   Low     0.0104   3.82e-6  1.78    7.43e-2  0.08         0.04    1.12 
# ℹ 78 more rows
# ℹ 10 more variables: kurtosis <dbl>, nb <nb>, wts <list>, NAME_2 <chr>,
#   ID_3 <int>, NAME_3 <chr>, ENGTYPE_3 <chr>, County <chr>, GDPPC <dbl>,
#   geometry <POLYGON [°]>
…
