415 - Takehome 1
…
Code

# Filter the data for the specified date range
acled_filtered <- acled_sf %>%
  filter(event_date >= as.Date("2021-01-01") & event_date <= as.Date("2024-06-30"))

Code

distinct_actor1 <- acled_filtered %>% 
  st_drop_geometry() %>%
  distinct(actor1) %>%
  filter(!is.na(actor1))
print(distinct_actor1)

# A tibble: 1,334 × 1
   actor1                                                                   
   <chr>                                                                    
 1 Military Forces of Myanmar (2021-)                                       
 2 Phoenix DF: Phoenix Defense Force (Nattalin)                             
 3 Protesters (Myanmar)                                                     
 4 MSRF: Mon State Revolutionary                                            
 5 ULA/AA: United League of Arakan/Arakan Army                              
 6 PSLF/TNLA: Palaung State Liberation Front/Ta'ang National Liberation Army
 7 MSPDF: Myaung Special People's Defense Force                             
 8 People's Defense Force - Myingyan District                               
 9 Unidentified Anti-Coup Armed Group                                       
10 Police Forces of Myanmar (2021-)                                         
# ℹ 1,324 more rows

Code

distinct_actor2 <- acled_filtered %>% 
  st_drop_geometry() %>%
  distinct(actor2) %>%
  filter(!is.na(actor2))
print(distinct_actor2)

# A tibble: 473 × 1
   actor2                                                                       
   <chr>                                                                        
 1 Civilians (Myanmar)                                                          
 2 Military Forces of Myanmar (2021-)                                           
 3 Police Forces of Myanmar (2021-)                                             
 4 ULA/AA: United League of Arakan/Arakan Army                                  
 5 ARF: Ayeyarwaddy Revolution Front                                            
 6 ARSA: Arakan Rohingya Salvation Army                                         
 7 Unidentified Armed Group (Myanmar)                                           
 8 Pyu Saw Htee                                                                 
 9 KNU/KNLA: Karen National Union/Karen National Liberation Army                
10 Taungoo Kha Yaing Pyi Thu Kar Kwei Yae Tat Ma Taw Tat Yin Ahmat 3501: Taungo…
# ℹ 463 more rows
…
