415 - Takehome 2
…
The drug use is pretty bad from 17-19, but started declining in 2020(covid? maybe). Analysis will thus be conducted on the worst year, 2018.

DRUG USE CASES 2018

drugoff_list[[2]]

Simple feature collection with 77 features and 15 fields
Geometry type: MULTIPOLYGON
Dimension:     XY
Bounding box:  xmin: 97.34336 ymin: 5.613038 xmax: 105.637 ymax: 20.46507
Geodetic CRS:  WGS 84
# A tibble: 77 × 16
   fiscal_year types_of_drug_offenses no_cases province_en Shape_Leng Shape_Area
         <dbl> <chr>                     <dbl> <chr>            <dbl>      <dbl>
 1        2018 drug_use_cases            16480 Bangkok           2.42     0.131 
 2        2018 drug_use_cases              422 Chai Nat          2.90     0.209 
 3        2018 drug_use_cases             1661 Nonthaburi        1.25     0.0532
 4        2018 drug_use_cases             1823 Pathum Tha…       1.88     0.127 
 5        2018 drug_use_cases             1123 Phra Nakho…       3.04     0.214 
 6        2018 drug_use_cases             1850 Lop Buri          5.69     0.546 
 7        2018 drug_use_cases             3015 Samut Prak…       1.70     0.0793
 8        2018 drug_use_cases              628 Saraburi          4.77     0.292 
 9        2018 drug_use_cases              402 Sing Buri         1.78     0.0687
10        2018 drug_use_cases              660 Ang Thong         1.74     0.0792
# ℹ 67 more rows
# ℹ 10 more variables: ADM1_PCODE <chr>, ADM1_REF <chr>, ADM1ALT1EN <chr>,
#   ADM1ALT2EN <chr>, ADM0_EN <chr>, ADM0_PCODE <chr>, date <date>,
#   validOn <date>, validTo <date>, geometry <MULTIPOLYGON [°]>
…
Computing local Gi*

HCSA_DUC18 <- wm_idw_DUC18 %>% 
  mutate(local_Gi = local_gstar_perm(
    no_cases, nb, wt, nsim = 99),
         .before = 1) %>%
  unnest(local_Gi)
HCSA_DUC18

Simple feature collection with 77 features and 28 fields
Geometry type: MULTIPOLYGON
Dimension:     XY
Bounding box:  xmin: 97.34336 ymin: 5.613038 xmax: 105.637 ymax: 20.46507
Geodetic CRS:  WGS 84
# A tibble: 77 × 29
   gi_star cluster   e_gi    var_gi std_dev  p_value p_sim p_folded_sim skewness
     <dbl> <fct>    <dbl>     <dbl>   <dbl>    <dbl> <dbl>        <dbl>    <dbl>
 1  2.71   High    0.0259 0.0000118   0.482  6.30e-1  0.5          0.25    0.821
 2 -1.28   Low     0.0125 0.0000522  -1.08   2.81e-1  0.06         0.03    1.96 
 3  3.01   Low     0.0126 0.0000396   3.15   1.62e-3  0.08         0.04    1.95 
 4  2.18   Low     0.0121 0.0000195   2.85   4.39e-3  0.1          0.05    1.64 
 5 -0.552  Low     0.0130 0.0000314  -0.490  6.24e-1  0.76         0.38    1.54 
 6 -0.373  Low     0.0127 0.0000234  -0.296  7.67e-1  0.92         0.46    1.84 
 7  4.30   High    0.0150 0.0000473   4.99   6.13e-7  0.04         0.02    3.16 
 8  0.0122 Low     0.0113 0.0000288   0.323  7.47e-1  0.5          0.25    1.71 
 9 -1.15   Low     0.0113 0.0000323  -0.884  3.77e-1  0.32         0.16    1.68 
10 -0.833  Low     0.0117 0.0000347  -0.701  4.83e-1  0.48         0.24    1.52 
# ℹ 67 more rows
# ℹ 20 more variables: kurtosis <dbl>, wts <list>, wt <list>,
#   fiscal_year <dbl>, types_of_drug_offenses <chr>, no_cases <dbl>,
#   province_en <chr>, Shape_Leng <dbl>, Shape_Area <dbl>, ADM1_PCODE <chr>,
#   ADM1_REF <chr>, ADM1ALT1EN <chr>, ADM1ALT2EN <chr>, ADM0_EN <chr>,
#   ADM0_PCODE <chr>, date <date>, validOn <date>, validTo <date>,
#   geometry <MULTIPOLYGON [°]>, nb <nb>
…
# Check the class of the geometry column
print(class(traffoff_sf$geometry))

[1] "sfc_MULTIPOLYGON" "sfc"             

traffoff_list <- split(traffoff_sf, traffoff_sf$fiscal_year)

traffoff_list[[2]]

Simple feature collection with 77 features and 15 fields
Geometry type: MULTIPOLYGON
Dimension:     XY
Bounding box:  xmin: 97.34336 ymin: 5.613038 xmax: 105.637 ymax: 20.46507
Geodetic CRS:  WGS 84
# A tibble: 77 × 16
   fiscal_year types_of_drug_offenses no_cases province_en Shape_Leng Shape_Area
         <dbl> <chr>                     <dbl> <chr>            <dbl>      <dbl>
 1        2018 trafficking_cases           623 Bangkok           2.42     0.131 
 2        2018 trafficking_cases           151 Chai Nat          2.90     0.209 
 3        2018 trafficking_cases           113 Nonthaburi        1.25     0.0532
 4        2018 trafficking_cases            68 Pathum Tha…       1.88     0.127 
 5        2018 trafficking_cases           164 Phra Nakho…       3.04     0.214 
 6        2018 trafficking_cases           234 Lop Buri          5.69     0.546 
 7        2018 trafficking_cases           112 Samut Prak…       1.70     0.0793
 8        2018 trafficking_cases            45 Saraburi          4.77     0.292 
 9        2018 trafficking_cases            44 Sing Buri         1.78     0.0687
10        2018 trafficking_cases            61 Ang Thong         1.74     0.0792
# ℹ 67 more rows
# ℹ 10 more variables: ADM1_PCODE <chr>, ADM1_REF <chr>, ADM1ALT1EN <chr>,
#   ADM1ALT2EN <chr>, ADM0_EN <chr>, ADM0_PCODE <chr>, date <date>,
#   validOn <date>, validTo <date>, geometry <MULTIPOLYGON [°]>
…
HCSA_traff18 <- wm_idw_traff18 %>% 
  mutate(local_Gi = local_gstar_perm(
    no_cases, nb, wt, nsim = 99),
         .before = 1) %>%
  unnest(local_Gi)
HCSA_traff18

Simple feature collection with 77 features and 28 fields
Geometry type: MULTIPOLYGON
Dimension:     XY
Bounding box:  xmin: 97.34336 ymin: 5.613038 xmax: 105.637 ymax: 20.46507
Geodetic CRS:  WGS 84
# A tibble: 77 × 29
   gi_star cluster   e_gi    var_gi std_dev p_value p_sim p_folded_sim skewness
     <dbl> <fct>    <dbl>     <dbl>   <dbl>   <dbl> <dbl>        <dbl>    <dbl>
 1   0.725 High    0.0180 0.0000159 -0.529   0.597   0.64         0.32    0.503
 2  -0.660 Low     0.0135 0.0000241 -0.746   0.455   0.4          0.2     1.11 
 3   1.44  Low     0.0131 0.0000247  1.37    0.170   0.18         0.09    0.712
 4   0.318 Low     0.0113 0.0000124  0.841   0.400   0.36         0.18    0.528
 5  -0.594 High    0.0132 0.0000115 -0.706   0.480   0.52         0.26    0.639
 6   0.275 High    0.0137 0.0000103  0.0721  0.942   1            0.5     0.303
 7   1.93  Low     0.0117 0.0000315  2.39    0.0170  0.04         0.02    1.16 
 8  -0.375 Low     0.0113 0.0000169  0.0131  0.990   0.9          0.45    0.452
 9  -0.483 Low     0.0116 0.0000202 -0.158   0.875   0.98         0.49    0.848
10  -0.539 Low     0.0114 0.0000196 -0.232   0.817   0.9          0.45    0.624
# ℹ 67 more rows
# ℹ 20 more variables: kurtosis <dbl>, wts <list>, wt <list>,
#   fiscal_year <dbl>, types_of_drug_offenses <chr>, no_cases <dbl>,
#   province_en <chr>, Shape_Leng <dbl>, Shape_Area <dbl>, ADM1_PCODE <chr>,
#   ADM1_REF <chr>, ADM1ALT1EN <chr>, ADM1ALT2EN <chr>, ADM0_EN <chr>,
#   ADM0_PCODE <chr>, date <date>, validOn <date>, validTo <date>,
#   geometry <MULTIPOLYGON [°]>, nb <nb>
…
# Check the class of the geometry column
print(class(impoff_sf$geometry))

[1] "sfc_MULTIPOLYGON" "sfc"             

impoff_list <- split(impoff_sf, impoff_sf$fiscal_year)

impoff_list[[2]]

Simple feature collection with 77 features and 15 fields
Geometry type: MULTIPOLYGON
Dimension:     XY
Bounding box:  xmin: 97.34336 ymin: 5.613038 xmax: 105.637 ymax: 20.46507
Geodetic CRS:  WGS 84
# A tibble: 77 × 16
   fiscal_year types_of_drug_offenses no_cases province_en Shape_Leng Shape_Area
         <dbl> <chr>                     <dbl> <chr>            <dbl>      <dbl>
 1        2018 import_cases                  1 Bangkok           2.42     0.131 
 2        2018 import_cases                  0 Chai Nat          2.90     0.209 
 3        2018 import_cases                  0 Nonthaburi        1.25     0.0532
 4        2018 import_cases                  0 Pathum Tha…       1.88     0.127 
 5        2018 import_cases                  0 Phra Nakho…       3.04     0.214 
 6        2018 import_cases                  0 Lop Buri          5.69     0.546 
 7        2018 import_cases                  0 Samut Prak…       1.70     0.0793
 8        2018 import_cases                  0 Saraburi          4.77     0.292 
 9        2018 import_cases                  0 Sing Buri         1.78     0.0687
10        2018 import_cases                  0 Ang Thong         1.74     0.0792
# ℹ 67 more rows
# ℹ 10 more variables: ADM1_PCODE <chr>, ADM1_REF <chr>, ADM1ALT1EN <chr>,
#   ADM1ALT2EN <chr>, ADM0_EN <chr>, ADM0_PCODE <chr>, date <date>,
#   validOn <date>, validTo <date>, geometry <MULTIPOLYGON [°]>
…
HCSA_imp18 <- wm_idw_imp18 %>% 
  mutate(local_Gi = local_gstar_perm(
    no_cases, nb, wt, nsim = 99),
         .before = 1) %>%
  unnest(local_Gi)
HCSA_imp18

Simple feature collection with 77 features and 28 fields
Geometry type: MULTIPOLYGON
Dimension:     XY
Bounding box:  xmin: 97.34336 ymin: 5.613038 xmax: 105.637 ymax: 20.46507
Geodetic CRS:  WGS 84
# A tibble: 77 × 29
   gi_star cluster    e_gi   var_gi std_dev p_value p_sim p_folded_sim skewness
     <dbl> <fct>     <dbl>    <dbl>   <dbl>   <dbl> <dbl>        <dbl>    <dbl>
 1  -0.743 Low     0.0123  0.000200  -0.707   0.480  0.36         0.12     1.67
 2  -0.751 Low     0.00887 0.000224  -0.592   0.554  0.32         0.01     2.64
 3  -0.567 Low     0.00920 0.000202  -0.424   0.672  0.94         0.4      2.15
 4  -0.822 Low     0.00941 0.000122  -0.751   0.453  0.36         0.12     1.66
 5  -0.896 Low     0.0107  0.000139  -0.825   0.409  0.2          0.07     1.89
 6  -1.04  Low     0.0138  0.000240  -0.889   0.374  0.08         0.01     1.73
 7  -0.457 Low     0.00954 0.000440  -0.329   0.742  0.76         0.45     2.61
 8  -0.828 Low     0.00886 0.000175  -0.669   0.503  0.24         0.01     2.51
 9  -0.828 Low     0.0101  0.000148  -0.834   0.404  0.12         0.01     1.79
10  -0.751 Low     0.0101  0.000266  -0.616   0.538  0.24         0.01     2.86
# ℹ 67 more rows
# ℹ 20 more variables: kurtosis <dbl>, wts <list>, wt <list>,
#   fiscal_year <dbl>, types_of_drug_offenses <chr>, no_cases <dbl>,
#   province_en <chr>, Shape_Leng <dbl>, Shape_Area <dbl>, ADM1_PCODE <chr>,
#   ADM1_REF <chr>, ADM1ALT1EN <chr>, ADM1ALT2EN <chr>, ADM0_EN <chr>,
#   ADM0_PCODE <chr>, date <date>, validOn <date>, validTo <date>,
#   geometry <MULTIPOLYGON [°]>, nb <nb>
…
